[
  {
    "type": 1,
    "title": "Informace",
    "key": "dataCategory"
  },
  {
    "type": 2,
    "title": "Můžeš opravit nesprávné informace?",
    "summary": "Ano, nějaké informace můžou být nesprávné, ale ve většině případů to tak nebude. Můžu se pokusit opravit nějaké nesprávné informace, ale ne ty, které způsobili firmy.",
    "key": "dataInfo1"
  },
  {
    "type": 1,
    "title": "Oprávnění",
    "key": "permissionsCategory"
  },
  {
    "type": 2,
    "title": "Proč potřebujete číst stav telefonu?",
    "summary": "Tato informace se používá na zobrazení čísla IMEI vašeho zařízení.",
    "key": "permissionInfo1"
  },
  {
    "type": 2,
    "title": "Proč potřebujete znám mojí polohu?",
    "summary": "Tato informace se používá pro zobrazení detailních informací o vašem Wi-Fi připojení.",
    "key": "permissionInfo2"
  },
  {
    "type": 2,
    "title": "Mohu zakázat všechna dodatečná oprávnění?",
    "summary": "Ano, ale některé informace se mohou ukázat jako nedostupné",
    "key": "permissionInfo3"
  },
  {
    "type": 1,
    "title": "Systém",
    "key": "systemCategory"
  },
  {
    "type": 2,
    "title": "Proč není informace `Vydáno s` správná",
    "summary": "Pravděpodobně používáte custom ROM, nebo výrobce vašeho zařízení tuto informaci neposkytnul.",
    "key": "systemInfo1"
  },
  {
    "type": 2,
    "title": "Jak se dozvím více o verzi svého jádra?",
    "summary": "Kliknutím na `Verze jádra` se rozbalí celý text. Pokud se tak nestane, tato informace není dostupná.",
    "key": "systemInfo2"
  },
  {
    "type": 1,
    "title": "Hardware",
    "key": "hardwareCategory"
  },
  {
    "type": 2,
    "title": "Většina informací o GPU je označena jako `Nedostupné`, mohl by jste to opravit?",
    "summary": "Ve většině případů je toto chování způsobeno nastavením SELinux na vynucené (Enforcing). To zamezuje čtení takovýchto informací aplikacím třetích stran. Bohužel, toto chování nejspíše nelze nijak opravit.",
    "key": "harwareInfo1"
  },
  {
    "type": 1,
    "title": "Ostatní",
    "key": "otherCategory"
  },
  {
    "type": 2,
    "title": "Je v této aplikaci \"velikonoční vajíčko\"?",
    "summary": "Ano",
    "key": "otherInfo1"
  }
]